{D:\progressinternship2020\src\week_3\ex5\ttbenefits.i}
{D:\progressinternship2020\src\week_3\ex5\ttemployee.i}

DEFINE DATASET dsEmpBen FOR  ttEmployee, ttBenefits
    DATA-RELATION EmpBen FOR ttEmployee, ttBenefits
    RELATION-FIELDS (EmpNum, EmpNum) NESTED.