{D:\progressinternship2020\src\week_3\ex4\ttcustomer4.i}
{D:\progressinternship2020\src\week_3\ex4\ttorder4.i}

DEFINE DATASET dsCustomerOrder FOR ttCustomer, ttOrder 
    DATA-RELATION CustOrder FOR ttCustomer, ttOrder
    RELATION-FIELDS (CustNum, CustNum) NESTED.
    
