{D:\progressinternship2020\src\week_4\Ex1\ttcustomer.i}


/*------------------------------------------------------------------------
    File        : dsCustomer.i
    Purpose     : 

    Syntax      :

    Description : 

    Author(s)   : pDiac
    Created     : Tue Nov 10 11:09:25 EET 2020
    Notes       :
  ----------------------------------------------------------------------*/

/* ***************************  Definitions  ************************** */


/* ********************  Preprocessor Definitions  ******************** */


/* ***************************  Main Block  *************************** */
DEFINE DATASET dsCustomer FOR ttCustomer.