{D:\progressinternship2020\src\week_3\exMarius\ttcustomer.i}
{D:\progressinternship2020\src\week_3\exMarius\ttorder.i}

DEFINE DATASET dsCustomerOrder FOR ttCustomer, ttOrder 
    DATA-RELATION CustOrder FOR ttCustomer, ttOrder
    RELATION-FIELDS (CustNum, CustNum) NESTED.
    
