DEFINE TEMP-TABLE ttOrder NO-UNDO 
  FIELD OrderNum AS INTEGER
  FIELD CustNum AS INTEGER
  FIELD OrderStatus AS CHARACTER
  FIELD NumberofOrderLines AS INTEGER
  INDEX index1 IS PRIMARY UNIQUE OrderNum.